full_adder/Gate_level/fulladder.vcd
$date
	Mon Oct  2 19:57:20 2017
$end
$version
	Icarus Verilog
$end
$timescale
	100ps
$end
$scope module Top $end
$var wire 1 ! sum $end
$var wire 1 " c1 $end
$var reg 1 # a $end
$var reg 1 $ b $end
$var reg 1 % c $end
$scope module fu1 $end
$var wire 1 & and_1 $end
$var wire 1 ' and_2 $end
$var wire 1 % c_in $end
$var wire 1 " c_out $end
$var wire 1 # in0 $end
$var wire 1 $ in1 $end
$var wire 1 ! sum $end
$var wire 1 ( xor_1 $end
$upscope $end
$upscope $end
$enddefinitions $end
#0
$dumpvars
0(
0'
0&
0%
0$
0#
0"
0!
$end
#50
1!
1%
#100
1(
0%
1$
#150
1"
1&
0!
1%
#200
0"
0&
1!
0%
0$
1#
#250
1"
1&
0!
1%
#300
0&
0(
1'
0%
1$
#350
1!
1%
#400
0"
0!
0'
0%
0$
0#
